{
  "images" : [
    {
      "idiom" : "universal",
      "filename" : "HoneDetailBackImage.png",
      "scale" : "1x"
    },
    {
      "idiom" : "universal",
      "filename" : "HoneDetailBackImage@2x.png",
      "scale" : "2x"
    },
    {
      "idiom" : "universal",
      "filename" : "HoneDetailBackImage@3x.png",
      "scale" : "3x"
    },
    {
      "idiom" : "ipad",
      "filename" : "WhiteStripe.png",
      "scale" : "1x"
    },
    {
      "idiom" : "ipad",
      "filename" : "WhiteStripe-2x.png",
      "scale" : "2x"
    }
  ],
  "info" : {
    "version" : 1,
    "author" : "xcode"
  }
}